{
  "message": "@pagerduty-perms-production-main @hipchat-Permissions_Service \n\nSplunk Query: \neventtype=\"micros_perms\" m.t=\"application\" env=prod-west2 \"and failed with error\"",
  "name": "Usersync Bootstrap Failure",
  "options": {
    "escalation_message": "",
    "include_tags": false,
    "locked": false,
    "new_host_delay": 300,
    "no_data_timeframe": null,
    "notify_audit": false,
    "notify_no_data": false,
    "renotify_interval": 0,
    "require_full_window": false,
    "silenced": {},
    "thresholds": {
      "critical": 1.0
    },
    "timeout_h": 0
  },
  "query": "max(last_5m):avg:perms.usersync.bootstrap.failure{micros_service_id:perms,environment:prod-west2}.as_count() >= 2",
  "tags": [
    "service:perms"
  ],
  "type": "query alert"
}
